{
	"info": {
		"_postman_id": "c543338f-b105-4764-b906-dd40687d7ffc",
		"name": "Quiz-14-07-2020-001",
		"schema": "https://schema.getpostman.com/json/collection/v2.1.0/collection.json"
	},
	"item": [
		{
			"name": "Create unique user",
			"request": {
				"method": "POST",
				"header": [],
				"body": {
					"mode": "raw",
					"raw": "{\n    \"name\": \"Dhanish\",\n    \"phone_number\": 7760571636,\n    \"user_type\": \"QUIZ_MASTER\"\n}",
					"options": {
						"raw": {
							"language": "json"
						}
					}
				},
				"url": {
					"raw": "http://localhost:8000/user/",
					"protocol": "http",
					"host": [
						"localhost"
					],
					"port": "8000",
					"path": [
						"user",
						""
					]
				}
			},
			"response": []
		},
		{
			"name": "Get user types",
			"request": {
				"method": "GET",
				"header": [],
				"url": {
					"raw": "http://localhost:8000/user-types/",
					"protocol": "http",
					"host": [
						"localhost"
					],
					"port": "8000",
					"path": [
						"user-types",
						""
					]
				}
			},
			"response": []
		}
	],
	"protocolProfileBehavior": {}
}